<?xml version="1.0" encoding="UTF-8" standalone="no"?>
<svg xmlns:rdf="http://www.w3.org/1999/02/22-rdf-syntax-ns#" xmlns="http://www.w3.org/2000/svg" height="25" width="50" version="1.1" xmlns:cc="http://creativecommons.org/ns#" xmlns:dc="http://purl.org/dc/elements/1.1/" viewBox="0 0 50 25.000001">
 <defs>
  <filter id="a" style="color-interpolation-filters:sRGB">
   <feFlood result="flood" flood-opacity=".58824" flood-color="rgb(74,74,74)"/>
   <feComposite operator="in" result="composite1" in2="SourceGraphic" in="flood"/>
   <feGaussianBlur stdDeviation="2" result="blur" in="composite1"/>
   <feOffset result="offset" dx="0" dy="0"/>
   <feComposite operator="atop" result="composite2" in2="offset" in="offset"/>
  </filter>
 </defs>
 <g transform="translate(-1.9607 -1029.3)">
  <path style="color-rendering:auto;color:#000000;isolation:auto;mix-blend-mode:normal;shape-rendering:auto;solid-color:#000000;image-rendering:auto" d="m17.143 1032.6-10.893 12.3h13l-6.25 7.4129h6l6.25-7.4129h13l10.893-12.355z" fill-rule="evenodd" transform="matrix(.96696 0 0 1.0589 .17935 -62.09)" filter="url(#a)" fill="#a2a2a2"/>
 </g>
</svg>
