<?xml version="1.0" encoding="UTF-8" standalone="no"?>
<svg
   xmlns:dc="http://purl.org/dc/elements/1.1/"
   xmlns:cc="http://creativecommons.org/ns#"
   xmlns:rdf="http://www.w3.org/1999/02/22-rdf-syntax-ns#"
   xmlns:svg="http://www.w3.org/2000/svg"
   xmlns="http://www.w3.org/2000/svg"
   xmlns:sodipodi="http://sodipodi.sourceforge.net/DTD/sodipodi-0.dtd"
   xmlns:inkscape="http://www.inkscape.org/namespaces/inkscape"
   height="32"
   width="32"
   version="1.1"
   viewBox="0 0 32 32.000001"
   id="svg17"
   sodipodi:docname="board_public.svg"
   inkscape:version="0.92.4 5da689c313, 2019-01-14">
  <metadata
     id="metadata21">
    <rdf:RDF>
      <cc:Work
         rdf:about="">
        <dc:format>image/svg+xml</dc:format>
        <dc:type
           rdf:resource="http://purl.org/dc/dcmitype/StillImage" />
        <dc:title />
      </cc:Work>
    </rdf:RDF>
  </metadata>
  <sodipodi:namedview
     pagecolor="#ffffff"
     bordercolor="#666666"
     borderopacity="1"
     objecttolerance="10"
     gridtolerance="10"
     guidetolerance="10"
     inkscape:pageopacity="0"
     inkscape:pageshadow="2"
     inkscape:window-width="1280"
     inkscape:window-height="978"
     id="namedview19"
     showgrid="false"
     inkscape:zoom="7.375"
     inkscape:cx="-14.847458"
     inkscape:cy="15.59322"
     inkscape:window-x="0"
     inkscape:window-y="27"
     inkscape:window-maximized="1"
     inkscape:current-layer="g15" />
  <defs
     id="defs7">
    <radialGradient
       id="a"
       gradientUnits="userSpaceOnUse"
       cy="1032"
       cx="15.58"
       gradientTransform="matrix(.88920 0 0 .59069 2.1459 424.79)"
       r="13.515">
      <stop
         stop-color="#ff0018"
         offset="0"
         id="stop2"
         style="stop-color:#260024;stop-opacity:1" />
      <stop
         stop-color="#fff600"
         offset="1"
         id="stop4"
         style="stop-color:#e576ff;stop-opacity:1" />
    </radialGradient>
  </defs>
  <g
     fill-rule="evenodd"
     transform="translate(0 -1020.4)"
     id="g15">
    <rect
       style="color-rendering:auto;color:#000000;isolation:auto;mix-blend-mode:normal;shape-rendering:auto;solid-color:#000000;image-rendering:auto;stroke:#000000;stroke-opacity:1;stroke-width:0.738;stroke-miterlimit:4;stroke-dasharray:none;fill-rule:evenodd;opacity:1"
       height="15.262"
       width="23.262"
       stroke="#7e7e7e"
       y="1026.7"
       x="4.3689"
       stroke-width=".73790"
       fill="url(#a)"
       id="rect9" />
    <rect
       style="color-rendering:auto;color:#000000;isolation:auto;mix-blend-mode:normal;shape-rendering:auto;solid-color:#000000;image-rendering:auto"
       height="10"
       width="1"
       y="1042.4"
       x="8"
       fill="#a2a2a2"
       id="rect11" />
    <rect
       style="color-rendering:auto;color:#000000;isolation:auto;mix-blend-mode:normal;shape-rendering:auto;solid-color:#000000;image-rendering:auto"
       height="10"
       width="1"
       y="1042.4"
       x="23"
       fill="#a2a2a2"
       id="rect13" />
  </g>
</svg>
