<?xml version="1.0" encoding="UTF-8" standalone="no"?>
<svg
   xmlns:dc="http://purl.org/dc/elements/1.1/"
   xmlns:cc="http://creativecommons.org/ns#"
   xmlns:rdf="http://www.w3.org/1999/02/22-rdf-syntax-ns#"
   xmlns:svg="http://www.w3.org/2000/svg"
   xmlns="http://www.w3.org/2000/svg"
   xmlns:sodipodi="http://sodipodi.sourceforge.net/DTD/sodipodi-0.dtd"
   xmlns:inkscape="http://www.inkscape.org/namespaces/inkscape"
   version="1.1"
   x="0px"
   y="0px"
   viewBox="0 0 32 32"
   enable-background="new 0 0 100 100"
   xml:space="preserve"
   id="svg2"
   inkscape:version="0.91 r13725"
   sodipodi:docname="message_legal.svg"
   width="32"
   height="32"><metadata
     id="metadata14"><rdf:RDF><cc:Work
         rdf:about=""><dc:format>image/svg+xml</dc:format><dc:type
           rdf:resource="http://purl.org/dc/dcmitype/StillImage" /><dc:title></dc:title></cc:Work></rdf:RDF></metadata><defs
     id="defs12" /><sodipodi:namedview
     pagecolor="#ffffff"
     bordercolor="#666666"
     borderopacity="1"
     objecttolerance="10"
     gridtolerance="10"
     guidetolerance="10"
     inkscape:pageopacity="0"
     inkscape:pageshadow="2"
     inkscape:window-width="1600"
     inkscape:window-height="876"
     id="namedview10"
     showgrid="false"
     inkscape:zoom="13.350176"
     inkscape:cx="18.600008"
     inkscape:cy="15.66158"
     inkscape:window-x="1920"
     inkscape:window-y="552"
     inkscape:window-maximized="1"
     inkscape:current-layer="svg2" /><path
     d="m 15.781196,31.288981 c 0,0.276506 0,0.514946 0,0.700959 0.144895,0.0057 0.290764,0.009 0.436958,0.01006 0,-0.18314 0,-0.420145 0,-0.700602 -0.146194,-0.0011 -0.292063,-0.0046 -0.436958,-0.01039 z"
     id="path4"
     inkscape:connector-curvature="0"
     style="fill:none" /><g
     id="g6"
     transform="matrix(0.32487639,0,0,0.37001492,-0.1692606,-2.5009312)"
     style="fill:#808080;fill-opacity:1"><path
       d="m 11.781,93.242 7.91,-17.521 -10.037,0 c -5.036,0 -9.133,-4.005 -9.133,-8.928 l 0,-51.107 c 0,-4.922 4.098,-8.927 9.133,-8.927 l 80.232,0 c 5.037,0 9.134,4.005 9.134,8.927 l 0,51.107 c 0,4.923 -4.097,8.928 -9.134,8.928 l -40.777,0 -37.328,17.521 z M 9.654,12.009 c -2.073,0 -3.761,1.649 -3.761,3.677 l 0,51.107 c 0,2.027 1.688,3.676 3.761,3.676 l 18.28,0 -5.365,11.883 25.316,-11.883 42,0 c 2.074,0 3.761,-1.648 3.761,-3.676 l 0,-51.107 c 0,-2.028 -1.687,-3.677 -3.761,-3.677 l -80.231,0 z"
       id="path8"
       inkscape:connector-curvature="0"
       style="fill:#808080;fill-opacity:1" /></g><g
     id="g4320"
     style="fill:#808080;fill-opacity:1;fill-rule:evenodd;stroke:none;stroke-width:1"
     transform="matrix(0.27716376,0,0,0.27716376,7.6850878,4.0224053)"><g
       id="g4322"
       transform="translate(-300,-300)"
       style="fill:#808080;fill-opacity:1"><path
         id="path4324"
         d="m 300.15673,330.22389 7.98963,-18.97538 c 0.33166,-0.72831 0.88324,-1.10407 1.47909,-1.21424 l 13.37459,-3.00928 C 323,303.13401 326.13401,300 330,300 c 2.80184,0 5.2192,1.64613 6.33772,4.02401 l 13.13459,-2.95528 c 0.11686,-0.0311 0.2362,-0.0516 0.35634,-0.0616 0.14626,-0.0128 0.29112,-0.009 0.43247,0.009 0.61343,0.0782 1.19475,0.43354 1.51655,1.06591 0.0289,0.0561 0.0553,0.11384 0.079,0.17323 l 7.9866,18.96818 c 0.11365,0.26992 0.16358,0.55071 0.15661,0.82564 C 359.97321,327.54959 355.50633,332 350,332 c -5.50633,0 -9.97321,-4.45041 -9.99988,-9.95047 -0.007,-0.27493 0.043,-0.55572 0.15661,-0.82564 l 6.49263,-15.42 -9.71892,2.18676 c -0.38645,2.72804 -2.34559,4.95018 -4.93044,5.71947 L 332,351 l 11.00838,0 c 1.09994,0 1.99162,0.90018 1.99162,1.99202 l 0,5.01596 C 345,359.10814 344.10216,360 343.00838,360 l -26.01676,0 C 315.89168,360 315,359.09982 315,358.00798 l 0,-5.01596 C 315,351.89186 315.89784,351 316.99162,351 L 328,351 l 0,-37.28988 c -1.58928,-0.47299 -2.94201,-1.49521 -3.83811,-2.84655 l -11.39117,2.56302 7.07255,16.7973 c 0.11365,0.26992 0.16358,0.55071 0.15661,0.82564 C 319.97321,336.54959 315.50633,341 310,341 c -5.50633,0 -9.97321,-4.45041 -9.99988,-9.95047 -0.007,-0.27493 0.043,-0.55572 0.15661,-0.82564 l 0,0 z M 304.17086,331 310,317.19 l 5.82913,13.81 -11.65827,0 0,0 0,0 z m 51.6576,-9 L 350,308.21997 344.17154,322 l 11.65692,0 0,0 0,0 z"
         inkscape:connector-curvature="0"
         style="fill:#808080;fill-opacity:1" /></g></g></svg>