<?xml version="1.0" encoding="UTF-8" standalone="no"?>
<svg xmlns:rdf="http://www.w3.org/1999/02/22-rdf-syntax-ns#" xmlns="http://www.w3.org/2000/svg" height="32" width="32" version="1.1" xmlns:cc="http://creativecommons.org/ns#" xmlns:dc="http://purl.org/dc/elements/1.1/" viewBox="0 0 32 32.000001">
 <defs>
  <radialGradient id="a" gradientUnits="userSpaceOnUse" cy="1032" cx="15.58" gradientTransform="matrix(1.1868 0 0 .7372 -2.4908 -750.8)" r="13.515">
   <stop stop-color="#a832e7" offset="0"/>
   <stop stop-color="#99def0" offset="1"/>
  </radialGradient>
 </defs>
 <rect style="color-rendering:auto;color:#000000;isolation:auto;mix-blend-mode:normal;shape-rendering:auto;solid-color:#000000;image-rendering:auto" fill-rule="evenodd" height="19.048" width="31.048" stroke="#7e7e7e" y=".39999" x=".47618" stroke-width=".95235" fill="url(#a)"/>
 <rect style="color-rendering:auto;color:#000000;isolation:auto;mix-blend-mode:normal;shape-rendering:auto;solid-color:#000000;image-rendering:auto" fill-rule="evenodd" height="12" width="6" y="20" x="13" fill="#a2a2a2"/>
</svg>
